%YAML 1.1
%TAG !u! tag:unity3d.com,2011:
--- !u!1 &295889280762073292
GameObject:
  m_ObjectHideFlags: 0
  m_CorrespondingSourceObject: {fileID: 0}
  m_PrefabInstance: {fileID: 0}
  m_PrefabAsset: {fileID: 0}
  serializedVersion: 6
  m_Component:
  - component: {fileID: 295889280762073298}
  - component: {fileID: 295889280762073293}
  m_Layer: 0
  m_Name: Dialogue Object
  m_TagString: Untagged
  m_Icon: {fileID: 0}
  m_NavMeshLayer: 0
  m_StaticEditorFlags: 0
  m_IsActive: 1
--- !u!4 &295889280762073298
Transform:
  m_ObjectHideFlags: 0
  m_CorrespondingSourceObject: {fileID: 0}
  m_PrefabInstance: {fileID: 0}
  m_PrefabAsset: {fileID: 0}
  m_GameObject: {fileID: 295889280762073292}
  m_LocalRotation: {x: 0, y: 0, z: 0, w: 1}
  m_LocalPosition: {x: 0, y: 0, z: 0}
  m_LocalScale: {x: 1, y: 1, z: 1}
  m_Children: []
  m_Father: {fileID: 0}
  m_RootOrder: 0
  m_LocalEulerAnglesHint: {x: 0, y: 0, z: 0}
--- !u!114 &295889280762073293
MonoBehaviour:
  m_ObjectHideFlags: 0
  m_CorrespondingSourceObject: {fileID: 0}
  m_PrefabInstance: {fileID: 0}
  m_PrefabAsset: {fileID: 0}
  m_GameObject: {fileID: 295889280762073292}
  m_Enabled: 1
  m_EditorHideFlags: 0
  m_Script: {fileID: 11500000, guid: e73a481288daa73469bb6073ab79d4b5, type: 3}
  m_Name: 
  m_EditorClassIdentifier: 
  Lines:
  - ActorName: 
    Text: 
    Options: []
  isHidden: 0
  DisableInteractionTimer: 0.5
  OnEndEventParameter: 
  OnEndEvent:
    m_PersistentCalls:
      m_Calls: []
    m_TypeName: UnityEventWithString, Assembly-CSharp, Version=0.0.0.0, Culture=neutral,
      PublicKeyToken=null
  SkipDialogueKey: f
